Hello, Windows users.

######################################### TAKE NOTE ###########################################

 The 'Decryptor (exe)' folder should be obtained by the system administrator / super user ONLY.
 The folder is at Application > Microsoft platform > Decryptor (exe)

###############################################################################################

a) Please follow the instruction at below.

	1. Please enter this path in order to find the location of this application on disc or 
   	   any portable drive with extra space,

		Application > Microsoft platform

	2. copy and paste "Container Loading System (exe)" folder to a new path on your computer.
	
	3. Then, enter the folder on new path double click on "Container Loading System".

	4. The application will run.

b) Your system or antivirus will maybe block this application from running by prompting a message.
   Please allow it to run.

